@startuml

skinparam BackgroundColor AntiqueWhite

start

:发现缺陷;
:提交缺陷;

if (是否为缺陷？) then (yes)
    :分配缺陷;
    repeat
        :处理缺陷;
        :验证缺陷;
    repeat while (修复完成？) is (no)
    -> yes;
else (no)
endif

:关闭缺陷;

stop

@enduml